{
  "AstroNvim": { "branch": "main", "commit": "e18a628e3e3d4ee4f1c1a1840cfacd94aef82afa" },
  "Comment.nvim": { "branch": "master", "commit": "e30b7f2008e52442154b66f7c519bfd2f1e32acb" },
  "LuaSnip": { "branch": "master", "commit": "03c8e67eb7293c404845b3982db895d59c0d1538" },
  "aerial.nvim": { "branch": "master", "commit": "d5ba0e3cfede432cec7e6ab28724c4a554ea0f09" },
  "alpha-nvim": { "branch": "main", "commit": "b6f4129302db197a7249e67a90de3f2b676de13e" },
  "astrocommunity": { "branch": "main", "commit": "18978b14446256e68eae39b3c7770d15dfc025bd" },
  "astrocore": { "branch": "main", "commit": "8a66da8b8d4dfd783703195a6448aad75837d947" },
  "astrolsp": { "branch": "main", "commit": "e8290b739fa08c181a2149be5d94db0a91a42cd0" },
  "astrotheme": { "branch": "main", "commit": "41b7d8430a55fd771e41bd763af4c3fd1c2fc0b5" },
  "astroui": { "branch": "main", "commit": "0bc327c4a69f2e2b1a45449d5064d8e27e650d66" },
  "better-escape.nvim": { "branch": "master", "commit": "f45b52f8f87792e8659526f23261ffe278a54be5" },
  "cmp-buffer": { "branch": "main", "commit": "3022dbc9166796b644a841a02de8dd1cc1d311fa" },
  "cmp-dap": { "branch": "master", "commit": "ea92773e84c0ad3288c3bc5e452ac91559669087" },
  "cmp-nvim-lsp": { "branch": "main", "commit": "39e2eda76828d88b773cc27a3f61d2ad782c922d" },
  "cmp-path": { "branch": "main", "commit": "91ff86cd9c29299a64f968ebb45846c485725f23" },
  "cmp_luasnip": { "branch": "master", "commit": "05a9ab28b53f71d1aece421ef32fee2cb857a843" },
  "dressing.nvim": { "branch": "master", "commit": "71349f24c6e07b39f33600985843c289ca735308" },
  "friendly-snippets": { "branch": "main", "commit": "00ebcaa159e817150bd83bfe2d51fa3b3377d5c4" },
  "gitsigns.nvim": { "branch": "main", "commit": "0b04035bb7b3c83e999b9676e2fb46fd0aa9f910" },
  "guess-indent.nvim": { "branch": "main", "commit": "6cd61f7a600bb756e558627cd2e740302c58e32d" },
  "heirline.nvim": { "branch": "master", "commit": "0d797435e54645a5f98bad7ad6046aac1ef95c1e" },
  "indent-blankline.nvim": { "branch": "master", "commit": "3fe94b8034dd5241cb882bb73847303b58857ecf" },
  "lazy.nvim": { "branch": "main", "commit": "077102c5bfc578693f12377846d427f49bc50076" },
  "lazydev.nvim": { "branch": "main", "commit": "491452cf1ca6f029e90ad0d0368848fac717c6d2" },
  "leap.nvim": { "branch": "main", "commit": "c6bfb191f1161fbabace1f36f578a20ac6c7642c" },
  "lspkind.nvim": { "branch": "master", "commit": "cff4ae321a91ee3473a92ea1a8c637e3a9510aec" },
  "luvit-meta": { "branch": "main", "commit": "ce76f6f6cdc9201523a5875a4471dcfe0186eb60" },
  "mason-lspconfig.nvim": { "branch": "main", "commit": "62360f061d45177dda8afc1b0fd1327328540301" },
  "mason-null-ls.nvim": { "branch": "main", "commit": "2b8433f76598397fcc97318d410e0c4f7a4bea6a" },
  "mason-nvim-dap.nvim": { "branch": "main", "commit": "8b9363d83b5d779813cdd2819b8308651cec2a09" },
  "mason.nvim": { "branch": "main", "commit": "c43eeb5614a09dc17c03a7fb49de2e05de203924" },
  "mini.bufremove": { "branch": "main", "commit": "e6044aa28e61d4dd9ec86194d6f81743eced0c1c" },
  "neo-tree.nvim": { "branch": "main", "commit": "8c75e8a2949cd6cd35525799200a8d34471ee9eb" },
  "neoconf.nvim": { "branch": "main", "commit": "226a67022dca4d0cc5f196350af79220b39e971c" },
  "neodev.nvim": { "branch": "main", "commit": "46aa467dca16cf3dfe27098042402066d2ae242d" },
  "none-ls.nvim": { "branch": "main", "commit": "cfa65d86e21eeb60544d5e823f6db43941322a53" },
  "nui.nvim": { "branch": "main", "commit": "a0fd35fcbb4cb479366f1dc5f20145fd718a3733" },
  "nvim-autopairs": { "branch": "master", "commit": "19606af7c039271d5aa96bceff101e7523af3136" },
  "nvim-cmp": { "branch": "main", "commit": "ae644feb7b67bf1ce4260c231d1d4300b19c6f30" },
  "nvim-colorizer.lua": { "branch": "master", "commit": "194ec600488f7c7229668d0e80bd197f3a2b84ff" },
  "nvim-dap": { "branch": "master", "commit": "281a2e4cd1e7a17cea7ecb1745d84a8ab1249925" },
  "nvim-dap-python": { "branch": "master", "commit": "7c427e2bbc72d46ea3c9602bede6465ef61b8c19" },
  "nvim-dap-ui": { "branch": "master", "commit": "a5606bc5958db86f8d92803bea7400ee26a8d7e4" },
  "nvim-lspconfig": { "branch": "master", "commit": "d4814330b207a4e05ba9515e453b0e87f20357ec" },
  "nvim-nio": { "branch": "master", "commit": "a428f309119086dc78dd4b19306d2d67be884eee" },
  "nvim-notify": { "branch": "master", "commit": "d333b6f167900f6d9d42a59005d82919830626bf" },
  "nvim-treesitter": { "branch": "master", "commit": "1e860567fbc19f117a03c0d2c46dcc01325c1b8b" },
  "nvim-treesitter-textobjects": { "branch": "master", "commit": "ced6375723b20616282f9f6a1018a63ae19b106a" },
  "nvim-ts-autotag": { "branch": "main", "commit": "0cb76eea80e9c73b88880f0ca78fbd04c5bdcac7" },
  "nvim-ts-context-commentstring": { "branch": "main", "commit": "375c2d86cee6674afd75b4f727ce3a80065552f7" },
  "nvim-ufo": { "branch": "main", "commit": "a5390706f510d39951dd581f6d2a972741b3fa26" },
  "nvim-web-devicons": { "branch": "master", "commit": "3722e3d1fb5fe1896a104eb489e8f8651260b520" },
  "nvim-window-picker": { "branch": "main", "commit": "41cfaa428577c53552200a404ae9b3a0b5719706" },
  "plenary.nvim": { "branch": "master", "commit": "ec289423a1693aeae6cd0d503bac2856af74edaa" },
  "promise-async": { "branch": "main", "commit": "38a4575da9497326badd3995e768b4ccf0bb153e" },
  "resession.nvim": { "branch": "master", "commit": "cc819b0489938d03e4f3532a583354f0287c015b" },
  "smart-splits.nvim": { "branch": "master", "commit": "1a2b268a7ec7aeef879cdd15973339010ec134f7" },
  "telescope-fzf-native.nvim": { "branch": "main", "commit": "cf48d4dfce44e0b9a2e19a008d6ec6ea6f01a83b" },
  "telescope.nvim": { "branch": "master", "commit": "a0bbec21143c7bc5f8bb02e0005fa0b982edc026" },
  "todo-comments.nvim": { "branch": "main", "commit": "313b04e5b02d29ab9275c9295ff5e2b73921b0eb" },
  "toggleterm.nvim": { "branch": "main", "commit": "48be57eaba817f038d61bbf64d2c597f578c0827" },
  "vim-illuminate": { "branch": "master", "commit": "5eeb7951fc630682c322e88a9bbdae5c224ff0aa" },
  "vim-repeat": { "branch": "master", "commit": "65846025c15494983dafe5e3b46c8f88ab2e9635" },
  "which-key.nvim": { "branch": "main", "commit": "6c1584eb76b55629702716995cca4ae2798a9cca" }
}
